<?xml version="1.0" encoding="UTF-8"?>
<svg xmlns="http://www.w3.org/2000/svg" xmlns:xlink="http://www.w3.org/1999/xlink" width="375pt" height="374.999991pt" viewBox="0 0 375 374.999991" version="1.2">
<defs>
<g>
<symbol overflow="visible" id="glyph0-0">
<path style="stroke:none;" d="M 54.917969 -46.457031 C 53.691406 -39.515625 49.328125 -34.578125 43.359375 -33.539062 L 42.796875 -33.441406 L 45.472656 -48.0625 C 46.070312 -51.300781 46.101562 -54.4375 45.632812 -57.140625 C 43.710938 -68.175781 34.105469 -74.046875 24.191406 -72.320312 C 22.277344 -71.988281 20.628906 -71.46875 18.925781 -70.59375 L 22.578125 -92.925781 C 22.773438 -94.46875 22.898438 -95.765625 22.679688 -97.003906 C 21.859375 -101.734375 17.558594 -103.773438 13.617188 -103.085938 C 10.125 -102.476562 7.121094 -99.75 6.347656 -94.859375 C 2.355469 -69.796875 -1.222656 -49.679688 -4.78125 -27.480469 C -5.308594 -24.488281 -5.300781 -21.125 -4.851562 -18.53125 C -2.714844 -6.257812 8.558594 -1.488281 19.820312 -3.449219 C 28.042969 -4.882812 36.617188 -9.621094 39.890625 -19.476562 C 41.28125 -19.484375 42.765625 -19.628906 44.226562 -19.882812 C 56.164062 -21.960938 66.980469 -31.152344 68.800781 -44.695312 C 68.90625 -45.410156 68.921875 -45.996094 68.824219 -46.558594 C 68.179688 -50.273438 63.824219 -51.953125 60.109375 -51.304688 C 57.628906 -50.875 55.347656 -49.316406 54.917969 -46.457031 Z M 24.332031 -24.191406 L 24.265625 -23.253906 C 23.558594 -19.300781 20.417969 -17.363281 17.488281 -16.851562 C 14.222656 -16.285156 11.769531 -17.710938 11.21875 -20.867188 C 11.042969 -21.878906 10.960938 -23.027344 11.195312 -24.34375 C 12.765625 -33.320312 14.007812 -40.84375 15.445312 -49.914062 C 16.972656 -54.472656 20.085938 -57.914062 23.351562 -58.484375 C 26.28125 -58.992188 28.640625 -57.433594 29.132812 -54.617188 C 29.269531 -53.828125 29.3125 -52.90625 29.132812 -51.949219 L 27.941406 -44.777344 C 27.226562 -44.886719 28.054688 -44.796875 27.265625 -44.660156 C 21.75 -43.699219 18.140625 -38.429688 19.140625 -32.6875 C 19.710938 -29.421875 21.496094 -26.484375 24.332031 -24.191406 Z M 24.332031 -24.191406 "/>
</symbol>
<symbol overflow="visible" id="glyph0-1">
<path style="stroke:none;" d="M 63.984375 -50.355469 C 60.832031 -49.808594 57.675781 -47.285156 57.070312 -42.769531 C 55.085938 -28.152344 48.796875 -22.300781 43.726562 -21.417969 C 41.8125 -21.085938 40.511719 -21.902344 40.199219 -23.707031 C 40.039062 -24.605469 40.070312 -25.773438 40.191406 -27.070312 L 46.453125 -65.753906 C 46.667969 -67.183594 46.679688 -68.460938 46.484375 -69.585938 C 45.621094 -74.542969 41.117188 -76.425781 36.949219 -75.703125 C 33.796875 -75.152344 30.785156 -73.121094 29.472656 -69.992188 C 26.851562 -71.042969 22.167969 -71.96875 16.421875 -70.96875 C 8.988281 -69.675781 1.585938 -64.210938 0.0546875 -55.007812 L -5.257812 -22.871094 C -5.582031 -20.726562 -5.679688 -18.621094 -5.324219 -16.59375 C -3.699219 -7.246094 5.179688 -0.902344 15.089844 -2.625 C 20.382812 -3.546875 25.378906 -6.855469 28.898438 -11.296875 C 33.402344 -6.742188 41.554688 -7.234375 44.933594 -7.820312 C 54.28125 -9.449219 65.960938 -16.355469 69.992188 -35.855469 C 70.804688 -40.519531 71.550781 -43.550781 71.199219 -45.578125 C 70.53125 -49.40625 67.253906 -50.925781 63.984375 -50.355469 Z M 26.625 -45.011719 L 24.140625 -27.292969 C 23.050781 -19.558594 19.066406 -17.125 16.699219 -16.714844 C 14.222656 -16.285156 12.707031 -17.644531 12.257812 -20.234375 C 12.003906 -21.699219 12.105469 -23.109375 12.265625 -24.179688 L 15.535156 -48.074219 C 16.480469 -55.316406 19.476562 -56.765625 21.277344 -57.078125 C 23.417969 -57.449219 26.152344 -55.722656 26.820312 -51.894531 C 27.113281 -50.203125 27.035156 -47.984375 26.625 -45.011719 Z M 26.625 -45.011719 "/>
</symbol>
<symbol overflow="visible" id="glyph0-2">
<path style="stroke:none;" d="M 57.195312 -43.371094 C 54.59375 -28.996094 49.359375 -22.398438 44.066406 -21.476562 C 42.039062 -21.125 40.738281 -21.941406 40.402344 -23.855469 C 40.265625 -24.644531 40.335938 -25.585938 40.476562 -26.769531 L 44.910156 -53.300781 C 45.304688 -55.691406 45.402344 -57.796875 45.070312 -59.710938 C 43.5 -68.71875 34.667969 -74.144531 25.65625 -72.578125 C 21.265625 -71.8125 17.949219 -70.191406 15.394531 -67.542969 C 14.367188 -69.449219 11.355469 -70.085938 8.3125 -69.558594 C 5.160156 -69.007812 2.375 -67.015625 1.796875 -63.664062 L -7.855469 -7.800781 C -8.015625 -6.726562 -7.972656 -5.804688 -7.816406 -4.90625 C -7.089844 -0.738281 -3.453125 0.832031 0.152344 0.207031 C 4.09375 -0.480469 8.167969 -3.742188 8.972656 -9.105469 C 11.015625 -20.714844 13.734375 -37.085938 15.679688 -48.5625 C 17.742188 -54.722656 21.214844 -58.109375 24.367188 -58.660156 C 26.394531 -59.011719 28.09375 -57.917969 28.464844 -55.777344 C 28.601562 -54.988281 28.554688 -53.933594 28.390625 -52.863281 L 24.210938 -28.234375 C 23.757812 -25.484375 23.628906 -22.910156 24.039062 -20.542969 C 25.84375 -10.183594 35.363281 -6.15625 44.933594 -7.820312 C 56.421875 -9.820312 67.34375 -19.730469 71.292969 -43.042969 C 71.472656 -44 71.542969 -44.941406 71.40625 -45.730469 C 70.777344 -49.335938 67.179688 -50.679688 63.800781 -50.09375 C 60.757812 -49.5625 57.675781 -47.285156 57.195312 -43.371094 Z M 57.195312 -43.371094 "/>
</symbol>
<symbol overflow="visible" id="glyph1-0">
<path style="stroke:none;" d="M 65.105469 -48.914062 C 61.941406 -48.433594 58.726562 -45.984375 58.019531 -41.484375 C 55.710938 -26.914062 49.289062 -21.203125 44.203125 -20.433594 C 42.28125 -20.144531 40.996094 -20.992188 40.722656 -22.800781 C 40.585938 -23.703125 40.640625 -24.871094 40.792969 -26.164062 L 47.921875 -64.703125 C 48.167969 -66.125 48.207031 -67.402344 48.035156 -68.535156 C 47.285156 -73.507812 42.824219 -75.492188 38.640625 -74.863281 C 35.476562 -74.382812 32.417969 -72.417969 31.035156 -69.320312 C 28.441406 -70.429688 23.777344 -71.460938 18.011719 -70.589844 C 10.550781 -69.460938 3.027344 -64.164062 1.289062 -55 L -4.742188 -22.984375 C -5.113281 -20.847656 -5.257812 -18.746094 -4.953125 -16.710938 C -3.535156 -7.328125 5.199219 -0.785156 15.148438 -2.289062 C 20.460938 -3.089844 25.527344 -6.285156 29.148438 -10.644531 C 33.550781 -5.992188 41.710938 -6.300781 45.101562 -6.8125 C 54.484375 -8.230469 66.316406 -14.871094 70.785156 -34.277344 C 71.703125 -38.925781 72.519531 -41.941406 72.210938 -43.972656 C 71.628906 -47.816406 68.382812 -49.410156 65.105469 -48.914062 Z M 27.632812 -44.410156 L 24.75 -26.746094 C 23.484375 -19.039062 19.445312 -16.695312 17.070312 -16.335938 C 14.585938 -15.960938 13.101562 -17.355469 12.710938 -19.957031 C 12.488281 -21.425781 12.621094 -22.832031 12.808594 -23.902344 L 16.609375 -47.714844 C 17.714844 -54.9375 20.746094 -56.320312 22.554688 -56.589844 C 24.703125 -56.917969 27.398438 -55.128906 27.980469 -51.285156 C 28.238281 -49.589844 28.109375 -47.371094 27.632812 -44.410156 Z M 27.632812 -44.410156 "/>
</symbol>
<symbol overflow="visible" id="glyph1-1">
<path style="stroke:none;" d="M 56.691406 -41.859375 C 54.472656 -32.046875 48.820312 -25.0625 41.449219 -21.058594 L 42.105469 -23.585938 C 43.972656 -32.65625 45.835938 -42.535156 47.6875 -51.714844 C 48.074219 -53.742188 48.121094 -55.714844 47.816406 -57.75 C 46.433594 -66.90625 37.679688 -73.558594 28.863281 -72.226562 C 25.8125 -71.765625 22.28125 -70.65625 20.101562 -68.246094 C 19.917969 -70.992188 15.863281 -72.578125 11.792969 -71.960938 C 8.0625 -71.398438 4.75 -68.816406 3.773438 -63.8125 L -12.355469 20.019531 C -12.695312 21.574219 -12.734375 22.851562 -12.566406 23.980469 C -11.863281 28.617188 -7.664062 30.410156 -3.59375 29.792969 C 0.136719 29.230469 3.59375 26.859375 4.320312 22.472656 L 9.316406 -5.683594 C 13.230469 -3.5 20.234375 -3.054688 29.617188 -4.472656 C 51.546875 -7.785156 66.621094 -18.964844 70.855469 -41.457031 C 71.042969 -42.527344 71.132812 -43.464844 71.011719 -44.253906 C 70.449219 -47.984375 66.941406 -49.769531 63.550781 -49.257812 C 60.5 -48.796875 57.398438 -46.363281 56.691406 -41.859375 Z M 12.796875 -23.207031 L 17.878906 -50.796875 C 18.621094 -55.074219 21.269531 -57.4375 24.433594 -57.917969 C 27.148438 -58.328125 29.925781 -56.78125 30.351562 -53.953125 C 30.503906 -52.9375 30.433594 -51.886719 30.265625 -50.703125 C 28.789062 -41.347656 26.886719 -32.503906 25.164062 -23.226562 C 24.433594 -19.644531 21.691406 -17.152344 18.65625 -16.578125 C 15.714844 -16.132812 13.214844 -17.375 12.738281 -20.539062 C 12.617188 -21.328125 12.59375 -22.25 12.796875 -23.207031 Z M 12.796875 -23.207031 "/>
</symbol>
<symbol overflow="visible" id="glyph1-2">
<path style="stroke:none;" d="M 52.382812 -40.515625 C 49.390625 -26.652344 38.324219 -19.546875 28.714844 -18.097656 C 20.464844 -16.851562 14.664062 -20.019531 13.878906 -25.21875 C 13.726562 -26.238281 13.6875 -27.273438 13.96875 -28.472656 L 14.546875 -30.753906 C 18.132812 -29.214844 22.40625 -28.472656 26.929688 -29.15625 C 37.214844 -30.710938 45.285156 -38.519531 46.800781 -49.15625 C 47.042969 -51.386719 47.054688 -53.585938 46.765625 -55.507812 C 45.144531 -66.246094 35.417969 -73.21875 22.644531 -71.289062 C 12.585938 -69.769531 3.640625 -62.40625 1.390625 -50.503906 L -2.359375 -30.167969 C -2.855469 -27.316406 -3.011719 -24.519531 -2.617188 -21.917969 C -0.585938 -8.46875 13.339844 -2.015625 29.84375 -4.507812 C 45.554688 -6.882812 62.253906 -17.265625 66.453125 -39.984375 C 66.65625 -40.9375 66.648438 -41.746094 66.546875 -42.425781 C 66.019531 -45.929688 62.5625 -47.375 59.171875 -46.859375 C 56.007812 -46.382812 52.871094 -44.175781 52.382812 -40.515625 Z M 24.320312 -57.898438 C 27.488281 -58.378906 29.914062 -56.085938 30.410156 -52.808594 C 30.546875 -51.902344 30.570312 -50.980469 30.367188 -50.027344 C 29.800781 -46.125 26.613281 -44.253906 23.222656 -43.742188 C 21.074219 -43.417969 18.859375 -43.546875 17.140625 -44.210938 L 18.488281 -51.351562 C 19.203125 -55.046875 21.722656 -57.507812 24.320312 -57.898438 Z M 24.320312 -57.898438 "/>
</symbol>
<symbol overflow="visible" id="glyph1-3">
<path style="stroke:none;" d="M 12.703125 -20.765625 L 26.0625 -93.078125 C 26.308594 -94.503906 26.328125 -95.894531 26.160156 -97.023438 C 25.507812 -101.320312 21.011719 -103.53125 17.621094 -103.019531 C 13.328125 -102.371094 10.859375 -99.570312 9.820312 -94.210938 L -3.550781 -23.511719 C -4.0625 -20.777344 -4.15625 -18.332031 -3.796875 -15.960938 C -2.226562 -5.558594 7.234375 -1.09375 17.183594 -2.59375 C 27.921875 -4.21875 40.367188 -12.917969 44.726562 -37.625 C 44.832031 -38.453125 44.828125 -39.261719 44.722656 -39.9375 C 44.179688 -43.554688 40.621094 -45.675781 37.117188 -45.148438 C 34.289062 -44.722656 31.492188 -42.566406 30.542969 -38.144531 C 27.503906 -23.808594 21.820312 -17.054688 16.507812 -16.253906 C 14.246094 -15.910156 12.796875 -17.078125 12.542969 -18.773438 C 12.472656 -19.226562 12.578125 -20.050781 12.703125 -20.765625 Z M 12.703125 -20.765625 "/>
</symbol>
</g>
</defs>
<g id="surface1">
<g style="fill:rgb(99.21875%,38.038635%,33.329773%);fill-opacity:0.302;">
  <use xlink:href="#glyph0-0" x="26.0695" y="192.502663"/>
</g>
<g style="fill:rgb(99.21875%,38.038635%,33.329773%);fill-opacity:0.302;">
  <use xlink:href="#glyph0-1" x="82.264881" y="182.720936"/>
</g>
<g style="fill:rgb(99.21875%,38.038635%,33.329773%);fill-opacity:0.302;">
  <use xlink:href="#glyph0-2" x="141.388273" y="172.42954"/>
</g>
<g style="fill:rgb(99.21875%,38.038635%,33.329773%);fill-opacity:0.302;">
  <use xlink:href="#glyph0-1" x="200.511664" y="162.138145"/>
</g>
<g style="fill:rgb(99.21875%,38.038635%,33.329773%);fill-opacity:0.302;">
  <use xlink:href="#glyph0-2" x="259.635055" y="151.84675"/>
</g>
<g style="fill:rgb(99.21875%,38.038635%,33.329773%);fill-opacity:0.502;">
  <use xlink:href="#glyph0-0" x="20.728032" y="186.544133"/>
</g>
<g style="fill:rgb(99.21875%,38.038635%,33.329773%);fill-opacity:0.502;">
  <use xlink:href="#glyph0-1" x="76.923413" y="176.762405"/>
</g>
<g style="fill:rgb(99.21875%,38.038635%,33.329773%);fill-opacity:0.502;">
  <use xlink:href="#glyph0-2" x="136.046804" y="166.47101"/>
</g>
<g style="fill:rgb(99.21875%,38.038635%,33.329773%);fill-opacity:0.502;">
  <use xlink:href="#glyph0-1" x="195.170195" y="156.179615"/>
</g>
<g style="fill:rgb(99.21875%,38.038635%,33.329773%);fill-opacity:0.502;">
  <use xlink:href="#glyph0-2" x="254.293586" y="145.88822"/>
</g>
<g style="fill:rgb(96.469116%,95.289612%,89.408875%);fill-opacity:1;">
  <use xlink:href="#glyph0-0" x="15.386563" y="180.585603"/>
</g>
<g style="fill:rgb(96.469116%,95.289612%,89.408875%);fill-opacity:1;">
  <use xlink:href="#glyph0-1" x="71.581945" y="170.803875"/>
</g>
<g style="fill:rgb(96.469116%,95.289612%,89.408875%);fill-opacity:1;">
  <use xlink:href="#glyph0-2" x="130.705336" y="160.51248"/>
</g>
<g style="fill:rgb(96.469116%,95.289612%,89.408875%);fill-opacity:1;">
  <use xlink:href="#glyph0-1" x="189.828727" y="150.221085"/>
</g>
<g style="fill:rgb(96.469116%,95.289612%,89.408875%);fill-opacity:1;">
  <use xlink:href="#glyph0-2" x="248.952118" y="139.92969"/>
</g>
<g style="fill:rgb(99.21875%,38.038635%,33.329773%);fill-opacity:0.302;">
  <use xlink:href="#glyph1-0" x="38.523566" y="300.25351"/>
</g>
<g style="fill:rgb(99.21875%,38.038635%,33.329773%);fill-opacity:0.302;">
  <use xlink:href="#glyph1-1" x="97.86523" y="291.290195"/>
</g>
<g style="fill:rgb(99.21875%,38.038635%,33.329773%);fill-opacity:0.302;">
  <use xlink:href="#glyph1-1" x="155.737483" y="282.548828"/>
</g>
<g style="fill:rgb(99.21875%,38.038635%,33.329773%);fill-opacity:0.302;">
  <use xlink:href="#glyph1-2" x="213.609736" y="273.807462"/>
</g>
<g style="fill:rgb(99.21875%,38.038635%,33.329773%);fill-opacity:0.302;">
  <use xlink:href="#glyph1-0" x="267.186777" y="265.714869"/>
</g>
<g style="fill:rgb(99.21875%,38.038635%,33.329773%);fill-opacity:0.302;">
  <use xlink:href="#glyph1-3" x="326.52844" y="256.751554"/>
</g>
<g style="fill:rgb(99.21875%,38.038635%,33.329773%);fill-opacity:0.502;">
  <use xlink:href="#glyph1-0" x="33.316802" y="294.1764"/>
</g>
<g style="fill:rgb(99.21875%,38.038635%,33.329773%);fill-opacity:0.502;">
  <use xlink:href="#glyph1-1" x="92.658466" y="285.213085"/>
</g>
<g style="fill:rgb(99.21875%,38.038635%,33.329773%);fill-opacity:0.502;">
  <use xlink:href="#glyph1-1" x="150.530719" y="276.471719"/>
</g>
<g style="fill:rgb(99.21875%,38.038635%,33.329773%);fill-opacity:0.502;">
  <use xlink:href="#glyph1-2" x="208.402972" y="267.730352"/>
</g>
<g style="fill:rgb(99.21875%,38.038635%,33.329773%);fill-opacity:0.502;">
  <use xlink:href="#glyph1-0" x="261.980013" y="259.63776"/>
</g>
<g style="fill:rgb(99.21875%,38.038635%,33.329773%);fill-opacity:0.502;">
  <use xlink:href="#glyph1-3" x="321.321676" y="250.674445"/>
</g>
<g style="fill:rgb(96.469116%,95.289612%,89.408875%);fill-opacity:1;">
  <use xlink:href="#glyph1-0" x="28.110038" y="288.099277"/>
</g>
<g style="fill:rgb(96.469116%,95.289612%,89.408875%);fill-opacity:1;">
  <use xlink:href="#glyph1-1" x="87.451701" y="279.135962"/>
</g>
<g style="fill:rgb(96.469116%,95.289612%,89.408875%);fill-opacity:1;">
  <use xlink:href="#glyph1-1" x="145.323954" y="270.394595"/>
</g>
<g style="fill:rgb(96.469116%,95.289612%,89.408875%);fill-opacity:1;">
  <use xlink:href="#glyph1-2" x="203.196207" y="261.653229"/>
</g>
<g style="fill:rgb(96.469116%,95.289612%,89.408875%);fill-opacity:1;">
  <use xlink:href="#glyph1-0" x="256.773248" y="253.560636"/>
</g>
<g style="fill:rgb(96.469116%,95.289612%,89.408875%);fill-opacity:1;">
  <use xlink:href="#glyph1-3" x="316.114912" y="244.597321"/>
</g>
</g>
</svg>
